{"response":{"status":"ok","userTier":"developer","total":2225915,"startIndex":1,"pageSize":10,"currentPage":1,"pages":222592,"orderBy":"newest","results":[{"id":"uk-news/2020/oct/23/i-was-shocked-by-everything-an-asylum-seeker-on-arriving-at-kent-intake-unit","type":"article","sectionId":"uk-news","sectionName":"UK news","webPublicationDate":"2020-10-23T05:00:01Z","webTitle":"'I was shocked by everything': an asylum seeker on arriving at Kent intake unit","webUrl":"https://www.theguardian.com/uk-news/2020/oct/23/i-was-shocked-by-everything-an-asylum-seeker-on-arriving-at-kent-intake-unit","apiUrl":"https://content.guardianapis.com/uk-news/2020/oct/23/i-was-shocked-by-everything-an-asylum-seeker-on-arriving-at-kent-intake-unit","isHosted":false,"pillarId":"pillar/news","pillarName":"News"},{"id":"commentisfree/2020/oct/23/rightwing-populists-populism-trump-defeat-brexit","type":"article","sectionId":"commentisfree","sectionName":"Opinion","webPublicationDate":"2020-10-23T05:00:01Z","webTitle":"This is a moment of truth for rightwing populists – but don't celebrate yet | Andy Beckett","webUrl":"https://www.theguardian.com/commentisfree/2020/oct/23/rightwing-populists-populism-trump-defeat-brexit","apiUrl":"https://content.guardianapis.com/commentisfree/2020/oct/23/rightwing-populists-populism-trump-defeat-brexit","isHosted":false,"pillarId":"pillar/opinion","pillarName":"Opinion"},{"id":"tv-and-radio/2020/oct/23/tv-tonight-the-real-count-basie-revealed-in-a-trove-of-family-videos-and-letters","type":"article","sectionId":"tv-and-radio","sectionName":"Television & radio","webPublicationDate":"2020-10-23T05:00:01Z","webTitle":"TV tonight: the real Count Basie, revealed in a trove of family videos and letters","webUrl":"https://www.theguardian.com/tv-and-radio/2020/oct/23/tv-tonight-the-real-count-basie-revealed-in-a-trove-of-family-videos-and-letters","apiUrl":"https://content.guardianapis.com/tv-and-radio/2020/oct/23/tv-tonight-the-real-count-basie-revealed-in-a-trove-of-family-videos-and-letters","isHosted":false,"pillarId":"pillar/arts","pillarName":"Arts"},{"id":"uk-news/2020/oct/23/kent-inspectors-find-wet-and-cold-migrants-held-in-cramped-containers","type":"article","sectionId":"uk-news","sectionName":"UK news","webPublicationDate":"2020-10-23T05:00:01Z","webTitle":"Kent inspectors find wet and cold migrants held in cramped containers","webUrl":"https://www.theguardian.com/uk-news/2020/oct/23/kent-inspectors-find-wet-and-cold-migrants-held-in-cramped-containers","apiUrl":"https://content.guardianapis.com/uk-news/2020/oct/23/kent-inspectors-find-wet-and-cold-migrants-held-in-cramped-containers","isHosted":false,"pillarId":"pillar/news","pillarName":"News"},{"id":"tv-and-radio/2020/oct/23/from-celine-to-tlc-the-sounds-of-the-90s-podcasts-of-the-week","type":"article","sectionId":"tv-and-radio","sectionName":"Television & radio","webPublicationDate":"2020-10-23T05:00:01Z","webTitle":"From Céline to TLC, the sounds of the 90s – podcasts of the week","webUrl":"https://www.theguardian.com/tv-and-radio/2020/oct/23/from-celine-to-tlc-the-sounds-of-the-90s-podcasts-of-the-week","apiUrl":"https://content.guardianapis.com/tv-and-radio/2020/oct/23/from-celine-to-tlc-the-sounds-of-the-90s-podcasts-of-the-week","isHosted":false,"pillarId":"pillar/arts","pillarName":"Arts"},{"id":"tv-and-radio/2020/oct/23/why-quibi-is-a-cautionary-tale-shortform-netflix","type":"article","sectionId":"tv-and-radio","sectionName":"Television & radio","webPublicationDate":"2020-10-23T05:00:00Z","webTitle":"They built it, but people did not come: the cautionary tale of Quibi","webUrl":"https://www.theguardian.com/tv-and-radio/2020/oct/23/why-quibi-is-a-cautionary-tale-shortform-netflix","apiUrl":"https://content.guardianapis.com/tv-and-radio/2020/oct/23/why-quibi-is-a-cautionary-tale-shortform-netflix","isHosted":false,"pillarId":"pillar/arts","pillarName":"Arts"},{"id":"australia-news/live/2020/oct/23/coronavirus-australia-latest-updates-national-cabinet-christmas-borders-restrictions-economy-business-stranded-travellers-darwin-scott-morrison","type":"liveblog","sectionId":"australia-news","sectionName":"Australia news","webPublicationDate":"2020-10-23T04:56:41Z","webTitle":"Coronavirus Australia live updates: PM announces reopening plan as protesters in Melbourne pepper-sprayed","webUrl":"https://www.theguardian.com/australia-news/live/2020/oct/23/coronavirus-australia-latest-updates-national-cabinet-christmas-borders-restrictions-economy-business-stranded-travellers-darwin-scott-morrison","apiUrl":"https://content.guardianapis.com/australia-news/live/2020/oct/23/coronavirus-australia-latest-updates-national-cabinet-christmas-borders-restrictions-economy-business-stranded-travellers-darwin-scott-morrison","isHosted":false,"pillarId":"pillar/news","pillarName":"News"},{"id":"world/live/2020/oct/23/coronavirus-live-news-remdesivir-approved-as-covid-treatment-by-us-fda-france-sees-record-new-cases","type":"liveblog","sectionId":"world","sectionName":"World news","webPublicationDate":"2020-10-23T04:48:12Z","webTitle":"Coronavirus live news: remdesivir approved as Covid treatment by US FDA; France sees record new cases","webUrl":"https://www.theguardian.com/world/live/2020/oct/23/coronavirus-live-news-remdesivir-approved-as-covid-treatment-by-us-fda-france-sees-record-new-cases","apiUrl":"https://content.guardianapis.com/world/live/2020/oct/23/coronavirus-live-news-remdesivir-approved-as-covid-treatment-by-us-fda-france-sees-record-new-cases","isHosted":false,"pillarId":"pillar/news","pillarName":"News"},{"id":"us-news/2020/oct/22/trump-biden-final-presidential-debate-election","type":"article","sectionId":"us-news","sectionName":"US news","webPublicationDate":"2020-10-23T04:42:34Z","webTitle":"Biden mauls Trump's record on coronavirus in final presidential debate","webUrl":"https://www.theguardian.com/us-news/2020/oct/22/trump-biden-final-presidential-debate-election","apiUrl":"https://content.guardianapis.com/us-news/2020/oct/22/trump-biden-final-presidential-debate-election","isHosted":false,"pillarId":"pillar/news","pillarName":"News"},{"id":"world/2020/oct/23/fukushima-reactor-water-could-damage-human-dna-if-released-says-greenpeace","type":"article","sectionId":"world","sectionName":"World news","webPublicationDate":"2020-10-23T04:34:30Z","webTitle":"Fukushima reactor water could damage human DNA if released, says Greenpeace","webUrl":"https://www.theguardian.com/world/2020/oct/23/fukushima-reactor-water-could-damage-human-dna-if-released-says-greenpeace","apiUrl":"https://content.guardianapis.com/world/2020/oct/23/fukushima-reactor-water-could-damage-human-dna-if-released-says-greenpeace","isHosted":false,"pillarId":"pillar/news","pillarName":"News"}]}}